{
  "rows": [
    {
      "id": "550e8400-e29b-41d4-a716-446655440001",
      "name": "Primary Button Component",
      "status": "active",
      "category": "Buttons",
      "value": 156,
      "date": "2024-01-15T10:30:00Z",
      "tags": ["interactive", "core", "v2"]
    },
    {
      "id": "550e8400-e29b-41d4-a716-446655440002",
      "name": "Card Layout Container",
      "status": "active",
      "category": "Layouts",
      "value": 243,
      "date": "2024-01-14T14:22:00Z",
      "tags": ["layout", "container"]
    },
    {
      "id": "550e8400-e29b-41d4-a716-446655440003",
      "name": "Data Table Advanced",
      "status": "pending",
      "category": "Tables",
      "value": 89,
      "date": "2024-01-13T09:15:00Z",
      "tags": ["data", "complex"]
    },
    {
      "id": "550e8400-e29b-41d4-a716-446655440004",
      "name": "Form Input Text",
      "status": "active",
      "category": "Forms",
      "value": 321,
      "date": "2024-01-12T16:45:00Z",
      "tags": ["input", "validation"]
    },
    {
      "id": "550e8400-e29b-41d4-a716-446655440005",
      "name": "Modal Dialog",
      "status": "active",
      "category": "Overlays",
      "value": 178,
      "date": "2024-01-11T11:20:00Z",
      "tags": ["overlay", "interactive"]
    },
    {
      "id": "550e8400-e29b-41d4-a716-446655440006",
      "name": "Navigation Header",
      "status": "inactive",
      "category": "Navigation",
      "value": 67,
      "date": "2024-01-10T08:30:00Z",
      "tags": ["nav", "deprecated"]
    },
    {
      "id": "550e8400-e29b-41d4-a716-446655440007",
      "name": "Dropdown Menu",
      "status": "active",
      "category": "Navigation",
      "value": 234,
      "date": "2024-01-09T13:10:00Z",
      "tags": ["interactive", "menu"]
    },
    {
      "id": "550e8400-e29b-41d4-a716-446655440008",
      "name": "Icon Set Primary",
      "status": "active",
      "category": "Icons",
      "value": 412,
      "date": "2024-01-08T15:55:00Z",
      "tags": ["icons", "core"]
    },
    {
      "id": "550e8400-e29b-41d4-a716-446655440009",
      "name": "Toast Notification",
      "status": "active",
      "category": "Feedback",
      "value": 145,
      "date": "2024-01-07T10:40:00Z",
      "tags": ["feedback", "toast"]
    },
    {
      "id": "550e8400-e29b-41d4-a716-446655440010",
      "name": "Badge Component",
      "status": "active",
      "category": "Display",
      "value": 289,
      "date": "2024-01-06T12:25:00Z",
      "tags": ["badge", "status"]
    },
    {
      "id": "550e8400-e29b-41d4-a716-446655440011",
      "name": "Progress Bar",
      "status": "pending",
      "category": "Feedback",
      "value": 98,
      "date": "2024-01-05T09:50:00Z",
      "tags": ["progress", "loading"]
    },
    {
      "id": "550e8400-e29b-41d4-a716-446655440012",
      "name": "Sidebar Navigation",
      "status": "active",
      "category": "Navigation",
      "value": 267,
      "date": "2024-01-04T14:15:00Z",
      "tags": ["nav", "sidebar"]
    },
    {
      "id": "550e8400-e29b-41d4-a716-446655440013",
      "name": "Checkbox Input",
      "status": "active",
      "category": "Forms",
      "value": 345,
      "date": "2024-01-03T11:05:00Z",
      "tags": ["input", "selection"]
    },
    {
      "id": "550e8400-e29b-41d4-a716-446655440014",
      "name": "Radio Button Group",
      "status": "active",
      "category": "Forms",
      "value": 298,
      "date": "2024-01-02T16:30:00Z",
      "tags": ["input", "selection"]
    },
    {
      "id": "550e8400-e29b-41d4-a716-446655440015",
      "name": "Accordion Panel",
      "status": "archived",
      "category": "Display",
      "value": 54,
      "date": "2024-01-01T08:20:00Z",
      "tags": ["accordion", "old"]
    },
    {
      "id": "550e8400-e29b-41d4-a716-446655440016",
      "name": "Tab Navigation",
      "status": "active",
      "category": "Navigation",
      "value": 378,
      "date": "2023-12-31T13:45:00Z",
      "tags": ["tabs", "nav"]
    },
    {
      "id": "550e8400-e29b-41d4-a716-446655440017",
      "name": "Alert Banner",
      "status": "active",
      "category": "Feedback",
      "value": 189,
      "date": "2023-12-30T10:10:00Z",
      "tags": ["alert", "banner"]
    },
    {
      "id": "550e8400-e29b-41d4-a716-446655440018",
      "name": "Tooltip Component",
      "status": "active",
      "category": "Overlays",
      "value": 423,
      "date": "2023-12-29T15:35:00Z",
      "tags": ["tooltip", "help"]
    },
    {
      "id": "550e8400-e29b-41d4-a716-446655440019",
      "name": "Avatar Display",
      "status": "active",
      "category": "Display",
      "value": 312,
      "date": "2023-12-28T09:25:00Z",
      "tags": ["avatar", "user"]
    },
    {
      "id": "550e8400-e29b-41d4-a716-446655440020",
      "name": "Breadcrumb Trail",
      "status": "active",
      "category": "Navigation",
      "value": 156,
      "date": "2023-12-27T14:50:00Z",
      "tags": ["breadcrumb", "nav"]
    },
    {
      "id": "550e8400-e29b-41d4-a716-446655440021",
      "name": "Loading Spinner",
      "status": "active",
      "category": "Feedback",
      "value": 287,
      "date": "2023-12-26T11:15:00Z",
      "tags": ["loading", "spinner"]
    },
    {
      "id": "550e8400-e29b-41d4-a716-446655440022",
      "name": "Skeleton Loader",
      "status": "pending",
      "category": "Feedback",
      "value": 134,
      "date": "2023-12-25T16:40:00Z",
      "tags": ["loading", "skeleton"]
    },
    {
      "id": "550e8400-e29b-41d4-a716-446655440023",
      "name": "Pagination Control",
      "status": "active",
      "category": "Navigation",
      "value": 401,
      "date": "2023-12-24T08:05:00Z",
      "tags": ["pagination", "nav"]
    },
    {
      "id": "550e8400-e29b-41d4-a716-446655440024",
      "name": "Search Input",
      "status": "active",
      "category": "Forms",
      "value": 367,
      "date": "2023-12-23T13:30:00Z",
      "tags": ["search", "input"]
    },
    {
      "id": "550e8400-e29b-41d4-a716-446655440025",
      "name": "Slider Control",
      "status": "active",
      "category": "Forms",
      "value": 223,
      "date": "2023-12-22T10:55:00Z",
      "tags": ["slider", "input"]
    }
  ],
  "total": 125,
  "page": 1,
  "pageSize": 25,
  "totalPages": 5
}
